%YAML 1.1
%TAG !u! tag:unity3d.com,2011:
--- !u!1001 &7523449507969955639
PrefabInstance:
  m_ObjectHideFlags: 0
  serializedVersion: 2
  m_Modification:
    m_TransformParent: {fileID: 0}
    m_Modifications:
    - target: {fileID: 8667259471933821787, guid: 3bae6c71c29e005479aa85845ee0f6c9,
        type: 3}
      propertyPath: m_Name
      value: UISector8
      objectReference: {fileID: 0}
    - target: {fileID: 1783125378140417816, guid: 3bae6c71c29e005479aa85845ee0f6c9,
        type: 3}
      propertyPath: m_LocalPosition.x
      value: 0
      objectReference: {fileID: 0}
    - target: {fileID: 1783125378140417816, guid: 3bae6c71c29e005479aa85845ee0f6c9,
        type: 3}
      propertyPath: m_LocalPosition.y
      value: 0
      objectReference: {fileID: 0}
    - target: {fileID: 1783125378140417816, guid: 3bae6c71c29e005479aa85845ee0f6c9,
        type: 3}
      propertyPath: m_LocalPosition.z
      value: 0
      objectReference: {fileID: 0}
    - target: {fileID: 1783125378140417816, guid: 3bae6c71c29e005479aa85845ee0f6c9,
        type: 3}
      propertyPath: m_LocalRotation.x
      value: -0
      objectReference: {fileID: 0}
    - target: {fileID: 1783125378140417816, guid: 3bae6c71c29e005479aa85845ee0f6c9,
        type: 3}
      propertyPath: m_LocalRotation.y
      value: -0
      objectReference: {fileID: 0}
    - target: {fileID: 1783125378140417816, guid: 3bae6c71c29e005479aa85845ee0f6c9,
        type: 3}
      propertyPath: m_LocalRotation.z
      value: -0
      objectReference: {fileID: 0}
    - target: {fileID: 1783125378140417816, guid: 3bae6c71c29e005479aa85845ee0f6c9,
        type: 3}
      propertyPath: m_LocalRotation.w
      value: 1
      objectReference: {fileID: 0}
    - target: {fileID: 1783125378140417816, guid: 3bae6c71c29e005479aa85845ee0f6c9,
        type: 3}
      propertyPath: m_RootOrder
      value: 0
      objectReference: {fileID: 0}
    - target: {fileID: 1783125378140417816, guid: 3bae6c71c29e005479aa85845ee0f6c9,
        type: 3}
      propertyPath: m_LocalEulerAnglesHint.x
      value: 0
      objectReference: {fileID: 0}
    - target: {fileID: 1783125378140417816, guid: 3bae6c71c29e005479aa85845ee0f6c9,
        type: 3}
      propertyPath: m_LocalEulerAnglesHint.y
      value: 0
      objectReference: {fileID: 0}
    - target: {fileID: 1783125378140417816, guid: 3bae6c71c29e005479aa85845ee0f6c9,
        type: 3}
      propertyPath: m_LocalEulerAnglesHint.z
      value: 0
      objectReference: {fileID: 0}
    - target: {fileID: 1783125378140417816, guid: 3bae6c71c29e005479aa85845ee0f6c9,
        type: 3}
      propertyPath: m_AnchoredPosition.x
      value: -6.88
      objectReference: {fileID: 0}
    - target: {fileID: 1783125378140417816, guid: 3bae6c71c29e005479aa85845ee0f6c9,
        type: 3}
      propertyPath: m_AnchoredPosition.y
      value: 1.61
      objectReference: {fileID: 0}
    - target: {fileID: 1783125378140417816, guid: 3bae6c71c29e005479aa85845ee0f6c9,
        type: 3}
      propertyPath: m_SizeDelta.x
      value: 300
      objectReference: {fileID: 0}
    - target: {fileID: 1783125378140417816, guid: 3bae6c71c29e005479aa85845ee0f6c9,
        type: 3}
      propertyPath: m_SizeDelta.y
      value: 300
      objectReference: {fileID: 0}
    - target: {fileID: 1783125378140417816, guid: 3bae6c71c29e005479aa85845ee0f6c9,
        type: 3}
      propertyPath: m_AnchorMin.x
      value: 0.5
      objectReference: {fileID: 0}
    - target: {fileID: 1783125378140417816, guid: 3bae6c71c29e005479aa85845ee0f6c9,
        type: 3}
      propertyPath: m_AnchorMin.y
      value: 0.5
      objectReference: {fileID: 0}
    - target: {fileID: 1783125378140417816, guid: 3bae6c71c29e005479aa85845ee0f6c9,
        type: 3}
      propertyPath: m_AnchorMax.x
      value: 0.5
      objectReference: {fileID: 0}
    - target: {fileID: 1783125378140417816, guid: 3bae6c71c29e005479aa85845ee0f6c9,
        type: 3}
      propertyPath: m_AnchorMax.y
      value: 0.5
      objectReference: {fileID: 0}
    - target: {fileID: 1783125378140417816, guid: 3bae6c71c29e005479aa85845ee0f6c9,
        type: 3}
      propertyPath: m_Pivot.x
      value: 0.5
      objectReference: {fileID: 0}
    - target: {fileID: 1783125378140417816, guid: 3bae6c71c29e005479aa85845ee0f6c9,
        type: 3}
      propertyPath: m_Pivot.y
      value: 0.5
      objectReference: {fileID: 0}
    - target: {fileID: 4385559362955658999, guid: 3bae6c71c29e005479aa85845ee0f6c9,
        type: 3}
      propertyPath: m_text
      value: 'Sector 8

        Menu'
      objectReference: {fileID: 0}
    - target: {fileID: 4385559362955658999, guid: 3bae6c71c29e005479aa85845ee0f6c9,
        type: 3}
      propertyPath: m_firstOverflowCharacterIndex
      value: -1
      objectReference: {fileID: 0}
    - target: {fileID: 4385559362955658999, guid: 3bae6c71c29e005479aa85845ee0f6c9,
        type: 3}
      propertyPath: m_textInfo.characterCount
      value: 13
      objectReference: {fileID: 0}
    - target: {fileID: 4385559362955658999, guid: 3bae6c71c29e005479aa85845ee0f6c9,
        type: 3}
      propertyPath: m_textInfo.lineCount
      value: 3
      objectReference: {fileID: 0}
    m_RemovedComponents: []
  m_SourcePrefab: {fileID: 100100000, guid: 3bae6c71c29e005479aa85845ee0f6c9, type: 3}
